00000000000000000000000000000000000000000000000000000000000000000000000000000000
00000000000000000001111111111111111111111111111111111111111100000000000000000000
00000000000000000010000000000000000000000000000000000000000010000000000000000000
00000004444000000010066106610100606160661066100661066100661010000000000000000000
00000448888440000010633306330660603630363063360633063360633010000000000000000000
00004888888884000010100006100636100600060016630610060060610010000000000550000000
00048884888888400010600006300603600100060063300630060010630010000000005555000000
00048888888888400010366606160600600600616060000616066630616010000000055555500000
00488888888488840010033303330300300300333030000333033300333010000000055055500000
00488888488888840010000000000000000000000000000000000000000010000000005555000000
00488888888888840051111111111111111111111111111111111111111150000000000550000000
00488888888848840005555555555518815555555555551881555555555500000000000556000000
00048848888888400000000000000018810000000000001881000000000000000000065550000000
00048888888888400000000000000018810000000000001881000000000000000004444500000000
00004888848884000000000000000018810000000000001881000000000000000448888440000000
00000448888440000000000001111111111111111111111111111110000000004888888884000000
00000004444000000000000010000000000000000000000000000001000000048884888888400000
00000000000000000000000010000000000000000000000000000001000000048888888888400000
00000000000000000000000010000000000000000000000000000001000000488888888488840000
00000000000000000000000010000000000000000000000000000001000000488888444888840000
00000000000000000000000010000000000000000000000000000001000000488884550488840000
00000000000000000000000010000000000000000000000000000001000000488840556488840000
00000000000000000000000010000000000000000000000000000001000000048845550488400000
00000000000000000000000010000000000000000000000000000001000000048865504888400000
00000000030000000000000010000000000000000000000000000001000000004885568884000000
00000000333000000000000010000000000000000000000000000001000000000445588440000000
00000000333000000000000010000000000000000000000000000001000000000065554000000000
00000000363000000000000010000000000000000000000000000001000000000000556000000000
00000000606000000000000010000000000000000000000000000001000000000000550000000000
00000000000000000000000010000000000000000000000000000001000000000006550000000000
00000000000000000000000010000000000000000000000000000001000000000000555600000000
00000000000000000000000010000000000000000000000000000001000000000000055000000000
00000000000000000000000010000000000000000000000000000001000000000000655000000000
0000000000000000000000001000000000000000000000000000000100000000000005556000000
00000440000000000000000010000000000000000000000000000001000000000000065500600000
00004884000000000000000010000000000000000000000000000001000000000000005555500600
00048848400000000003330051111111111111111111111111111115000000000000000555555555
00048888400000000033313005555518815555555555551881555550000000000000000600555555
00004884000000000033333000000018810000000000001881000000000000000000000000600060
00000440000000000033333000000018810000000000001881000000000000000000000000000000
00000000000000000003330000000018810000000000001881000000000000000000000000000000
00000000000000000011611111111111111111111111111111111111111111000000000000000000
00000000000000000111611111111111111111111111111111111131111111100000000000000000
00000000000000000111611111111111111111111111111111111111151111100000000000000000
00000000000000000111111111111111111111111111111111111611111141100000000000000000
