00000000000000000000000000000000000000000000000000000000000000000000000000000000
00000000000000000000000001111111111111111111111111111110000000000000000000000000
00000000000000000000000010000000000000000000000000000001000000000000000000000000
00000000000000000000000010061006610006610061006610066101000000000000000000000000
00000000000000000000000010633606336063330633606336063301000000000000000000000000
00000000000000000000000010600606001010000600606006061001000000000000000000000000
00000000000000000000000010666106663060000666106001063001000000000000000000000000
00000000000330000000000010633606336036660633606663061601000000000000000000000000
00000000003333000000000010300303003003330300303330033301000000000066660000000000
00000000033333300000000010000000000000000000000000000001000000006666666600000000
00000000330330330000000051111111111111111111111111111115000000066666666660000000
00000000333333330000000005555518815555555555551881555550000000660606606066000000
00000000030330300000000000000018810000000000001881000000000006666666666666600000
00000000300000030000000000000018810000000000001881000000000000066606606660000000
00000000030000300000000000000018810000000000001881000000000000006000000600000000
00000000000000000000000001111111111111111111111111111110000000000000000000000000
00000000000000000000000010000000000000000000000000000001000000000000000000000000
00000000000000000000000010000000770077007707000770000001000000000000000000000000
00000000000000000000000010000000707000707070707770000001000000000000000000000000
00000000000000000000000010000000707077707070707000000001000000000000000000000000
00000000000000000000000010000000707077707070707770000001000000000000000000000000
00000000000000000000000010000000000000000000000000000001000000000000000000000000
00000000000000000000000010000000000000000000000000000001000000000000000000000000
00000000000000000000000010000000000000000000000000000001000000000000000000000000
00000000008888000000000010000000000000000000000000000001000000000007700000000000
00000000888888880000000010000000555055005505000550000001000000000077770000000000
00000008888888888000000010000000500000505050505550000001000000000777777000000000
00000008800880088000000010000000505055505050505000000001000000007707707700000000
00000008888888888000000010000000555055505050505550000001000000007777777700000000
00000000088008800000000010000000000000000000000000000001000000000070070000000000
00000000880880880000000010000000000000000000000000000001000000000707707000000000
00000088000000008800000010000000000000000000000000000001000000007070070700000000
00000000000000000000000010000000000000000000000000000001000000000000000000000000
00000000000000000000000010000000000000000000000000000001000000000000000000000000
00000000000000000000000010000000000000000000000000000001000000000000000000000000
00000000000000000000000010000000000000000000000000000001000000000000000000000000
00000000000000000003330051111111111111111111111111111115000000000000000000000000
00000000000000000033313005555518815555555555551881555550000000000000000000000000
00000000000000000033333000000018810000000000001881000000000000000000000000000000
00000000000000000033333000000018810000000000001881000000000000000000000000000000
00000000000000000003330000000018810000000000001881000000000000000000000000000000
00000000000000000011611111111111111111111111111111111111111111000000000000000000
00000000000000000111611111111111111111111111111111111131111111100000000000000000
00000000000000000111611111111111111111111111111111111111151111100000000000000000
00000000000000000111111111111111111111111111111111111611111141100000000000000000
