00000000000000000000000000000000000000000000000000000000000000000000000000000000
00000000000000000000000001111111111111111111111111111110000000000000000000000000
00000000000000000000000010000000000000000000000000000001000000000000000000000000
00000000000000000000000010061006610006610061006610066101000000000000000000000000
00000000000000000000000010633606336063330633606336063301000000000000000000000000
00000000000000000000000010600606001010000600606006061001000000000000000000000000
00000000000000000000000010666106663060000666106001063001000000000000000000000000
00000000000660000000000010633606336036660633606663061601000000000006600000000000
00000000000660000000000010300303003003330300303330033301000000000006600000000000
00000000006666000000000010000000000000000000000000000001000000000066660000000000
00000000006666000000000051111111111111111111111111111115000000000066660000000000
00000666666666666660000005555518815555555555551881555550000006666666666666600000
00000066660660666600000000000018810000000000001881000000000000666606606666000000
00000006660660666000000000000018810000000000001881000000000000066606606660000000
00000000666666660000000000000018810000000000001881000000000000006666666600000000
00000006666666666000000001111111111111111111111111111110000000066666666660000000
00000006666666666000000010000000000000000000000000000001000000066666666660000000
00000066666006666600000010303030000333033303330333033301000000666660066666000000
00000066600000066600000010303030000366036603630363036601000000666000000666000000
00000660000000000660000010333030330333030003030303033001000006600000000006600000
00000000000000000000000010363030660663030003030336036001000000000000000000000000
00000000000000000000000010303030000333033303330363033301000000000000000000000000
00000000000000000000000010606060000666066606660606066601000000000000000000000000
00000000000000000000000010000000000000000000000000000001000000000000000000000000
00000000000000000000000010000000000000000000000000000001000000000000000000000000
00000000000000000000000010000000000000000000000000000001000000000000000000000000
00000000000000000000000010000000000000000000000000000001000000000000000000000000
00000000000000000000000010000000000000000000000000000001000000000000000000000000
00000066666660000000000010000000000000000000000000000001000000000006666666000000
00000066666160000000000010000000000000000000000000000001000000000006666616000000
00066666666166660000000010000000000000000000000000000001000000006666666616666000
00060066666160060000000010000000000000000000000000000001000000006006666616006000
00060066666160060000000010000000000000000000000000000001000000006006666616006000
00060066666160060000000010000000000000000000000000000001000000006006666616006000
00006666666166600000000010000000000000000000000000000001000000000666666616660000
00000066661660000000000010000000000000000000000000000001000000000006666166000000
00000006666600000003330051111111111111111111111111111115000000000000666660000000
00000000666000000033313005555518815555555555551881555550000000000000066600000000
00000000666000000033333000000018810000000000001881000000000000000000066600000000
00000000666000000033333000000018810000000000001881000000000000000000066600000000
00000006666600000003330000000018810000000000001881000000000000000000666660000000
00000066666660000011611111111111111111111111111111111111111111000006666666000000
00000000000000000111611111111111111111111111111111111131111111100000000000000000
00000000000000000111611111111111111111111111111111111111151111100000000000000000
00000000000000000111111111111111111111111111111111111611111141100000000000000000
